/Users/vsachin/Downloads/jayspringboot/SpringbootParent/application/src/main/java/com/springboot/app/SpringbootaApp.java
/Users/vsachin/Downloads/jayspringboot/SpringbootParent/application/src/main/java/com/springboot/app/service/Consumer.java
/Users/vsachin/Downloads/jayspringboot/SpringbootParent/application/src/main/java/com/springboot/app/model/Driver.java
/Users/vsachin/Downloads/jayspringboot/SpringbootParent/application/src/main/java/com/springboot/app/service/Producer.java
/Users/vsachin/Downloads/jayspringboot/SpringbootParent/application/src/main/java/com/springboot/app/model/Store.java
/Users/vsachin/Downloads/jayspringboot/SpringbootParent/application/src/main/java/com/springboot/app/model/Employee.java
/Users/vsachin/Downloads/jayspringboot/SpringbootParent/application/src/main/java/com/springboot/app/dbaccess/StoreRepository.java
/Users/vsachin/Downloads/jayspringboot/SpringbootParent/application/src/main/java/com/springboot/app/dbaccess/DriverRepository.java
/Users/vsachin/Downloads/jayspringboot/SpringbootParent/application/src/main/java/com/springboot/app/controller/AppController.java
